A whirlwind tour of working with data in R
…
---

# Importing Data - CSV

```r
library(tidyverse) # load full suite of packages for data analysis

london_crime <- read_csv("data/london_crime.csv") # import london violent crime data

london_crime # preview the data
```

```
## # A tibble: 32 x 19
##    Code    Borough       `1999-00` `2000-01` `2001-02` `2002-03` `2003-04`
##    <chr>   <chr>             <dbl>     <dbl>     <dbl>     <dbl>     <dbl>
##  1 E09000~ Barking and ~      19.8      22.0      23.8      26.4      29.5
##  2 E09000~ Barnet             13.5      14.5      15.2      16.4      18.1
##  3 E09000~ Bexley             14.5      14.7      15.3      16.2      18.4
##  4 E09000~ Brent              20.8      21.8      21.1      23.3      27.5
##  5 E09000~ Bromley            10.9      12.9      13.0      15.9      16.8
##  6 E09000~ Camden             28.1      27.2      27.0      28.5      31.4
##  7 E09000~ Croydon            17.7      18.9      18.5      22.8      23.6
##  8 E09000~ Ealing             22.0      21.1      22.3      23.1      23.2
##  9 E09000~ Enfield            14.8      17.4      18.3      19.9      18.2
## 10 E09000~ Greenwich          29.4      29.4      28.8      31.1      30.6
## # ... with 22 more rows, and 12 more variables: `2004-05` <dbl>,
## #   `2005-06` <dbl>, `2006-07` <dbl>, `2007-08` <dbl>, `2008-09` <dbl>,
## #   `2009-10` <dbl>, `2010-11` <dbl>, `2011-12` <dbl>, `2012-13` <dbl>,
## #   `2013-14` <dbl>, `2014-15` <dbl>, `2015-16` <dbl>
```
…
---

# Results...

The 16th Arrondissement has the most trees in Paris! Most of which were planted in the 18th Century.

```r
transformed_trees
```

```
## # A tibble: 25 x 8
##    ARRONDISSEMENT    `17th` `18th` `19th` `20th` `21st` Unknown Total
##    <chr>              <int>  <int>  <int>  <int>  <int>   <int> <int>
##  1 PARIS 16E ARRDT       NA  13970     21   2154   2059    1301 19505
##  2 PARIS 15E ARRDT       NA  11910     25   3869   2198     974 18976
##  3 PARIS 13E ARRDT       NA  10528      1   2998   3972    1331 18830
##  4 PARIS 20E ARRDT       NA  12309     NA   1646   2316    1004 17275
##  5 PARIS 19E ARRDT       NA  10421     NA   1452   2353     990 15216
##  6 PARIS 14E ARRDT       NA  10752      2   1280   1858     560 14452
##  7 PARIS 12E ARRDT       NA   8602     17   2648   2231     672 14170
##  8 PARIS 17E ARRDT       NA   6414      3   1984   2557    1157 12115
##  9 SEINE-SAINT-DENIS     NA  11230     NA     NA    285     254 11769
## 10 PARIS 18E ARRDT       NA   6116     NA   1941   2556     862 11475
## # ... with 15 more rows
```
…
```r
co2 <- read.table("ftp://aftp.cmdl.noaa.gov/products/trends/co2/co2_annmean_mlo.txt") %>% 
  as_tibble() %>% 
  select(Year = V1, CO2 = V2)

temp <- read.table("https://go.nasa.gov/2r8ryH1") %>% 
  as_tibble() %>% 
  select(Year = V1, `Global Land-Ocean Temperature Index` = V2)
```

.pull-left[

```
## # A tibble: 59 x 2
##     Year   CO2
##    <int> <dbl>
##  1  1959   316
##  2  1960   317
##  3  1961   318
##  4  1962   318
##  5  1963   319
##  6  1964   320
##  7  1965   320
##  8  1966   321
##  9  1967   322
## 10  1968   323
## # ... with 49 more rows
```
]

.pull-right[

```
## # A tibble: 138 x 2
##     Year `Global Land-Ocean Temperature Index`
##    <int>                                 <dbl>
##  1  1880                                -0.190
##  2  1881                                -0.100
##  3  1882                                -0.100
##  4  1883                                -0.190
##  5  1884                                -0.280
##  6  1885                                -0.310
##  7  1886                                -0.320
##  8  1887                                -0.350
##  9  1888                                -0.180
## 10  1889                                -0.110
## # ... with 128 more rows
```
…
.pull-right[

To look for a relationship between each dataset we want to join them but only keep years for which there is both CO2 and Global Temperature data.

```r
joined_data <- inner_join(co2, temp, by = "Year")

joined_data
```

```
## # A tibble: 59 x 3
##     Year   CO2 `Global Land-Ocean Temperature Index`
##    <int> <dbl>                                 <dbl>
##  1  1959   316                                0.0300
##  2  1960   317                               -0.0200
##  3  1961   318                                0.0600
##  4  1962   318                                0.0400
##  5  1963   319                                0.0700
##  6  1964   320                               -0.200 
##  7  1965   320                               -0.100 
##  8  1966   321                               -0.0500
##  9  1967   322                               -0.0200
## 10  1968   323                               -0.0700
## # ... with 49 more rows
```
…
---

# ggplot2 - Example

```r
london_crime <- london_crime %>% # use london crime data previously imported
  gather(year, rate, 3:ncol(.))  # gather the year columns to key + value columns (wide to long data)

london_crime
```

```
## # A tibble: 544 x 4
##    Code      Borough              year     rate
##    <chr>     <chr>                <chr>   <dbl>
##  1 E09000002 Barking and Dagenham 1999-00  19.8
##  2 E09000003 Barnet               1999-00  13.5
##  3 E09000004 Bexley               1999-00  14.5
##  4 E09000005 Brent                1999-00  20.8
##  5 E09000006 Bromley              1999-00  10.9
##  6 E09000007 Camden               1999-00  28.1
##  7 E09000008 Croydon              1999-00  17.7
##  8 E09000009 Ealing               1999-00  22.0
##  9 E09000010 Enfield              1999-00  14.8
## 10 E09000011 Greenwich            1999-00  29.4
## # ... with 534 more rows
```
…
